[
  {
    "name": "beise",
    "lower_name": "beise",
    "image": "https://avatars1.githubusercontent.com/u/355264?s=400&v=4",
    "links": {
      "website": "https://hitnail.net",
      "twitter": "https://twitter.com/elbeise",
      "github": "https://github.com/brunoro",
      "instagram": ""
    }
  },
  {
    "name": "berin",
    "lower_name": "berin",
    "image": "https://gitlab.com/algoravebrasil/algoravebrasil.gitlab.io/-/raw/master/static/artistas/berin.png",
    "links": {
      "website": "https://berinfontes.com",
      "twitter": "https://twitter.com/bbfontes",
      "github": "https://github.com/berinhard",
      "instagram": "https://instagram.com/fontes.bernardo"
    }
  },
  {
    "name": "Diego Duk\u00e3o",
    "lower_name": "diego duk\u00e3o",
    "image": "http://0.gravatar.com/avatar/3bb81a67c51ccbd32b054297acb7fc8c",
    "links": {
      "website": "https://twitter.com/diegodukao",
      "twitter": "https://twitter.com/diegodukao",
      "github": "https://github.com/diegodukao",
      "instagram": "https://instagram.com/diegodukao"
    }
  },
  {
    "name": "Joenio M. Costa",
    "lower_name": "joenio",
    "image": "https://joenio.me/avatars/joenio-2020-800x800.jpg",
    "links": {
      "website": "https://joenio.me",
      "twitter": "https://twitter.com/joenio",
      "github": "https://github.com/joenio",
      "instagram": "https://www.instagram.com/joenio.costa"
    }
  },
  {
    "name": "ghales",
    "lower_name": "ghales",
    "image": "https://avatars2.githubusercontent.com/u/37638655",
    "links": {
      "website": "https://ghales.top",
      "twitter": "https://twitter.com/ghalestrilo",
      "github": "https://github.com/ghalestrilo",
      "instagram": "https://instagram.com/ghalestrilo"
    }
  }
]
